My Pages as R User: Using dplyr ggplot2 & plotly for Simple Analysis of Population Structure
…
About Data

Pre-Process

#calling packages
library(dplyr)
library(ggplot2)
library(plotly)

#read data
id_pop <- read.table("id_pop_proj.csv", as.is = TRUE, header = TRUE)
id_pop <- as.tbl(id_pop)
id_pop

# A tibble: 992 x 4
    year sex   age   population
   <int> <chr> <chr>      <dbl>
 1  2015 male  0-4       11242.
 2  2015 male  5-9       11303.
 3  2015 male  10-14     11242.
 4  2015 male  15-19     11188.
 5  2015 male  20-24     11101.
 6  2015 male  25-29     10900 
 7  2015 male  30-34     10593.
 8  2015 male  35-39      9955.
 9  2015 male  40-44      9304.
10  2015 male  45-49      8200.
# ... with 982 more rows

#Changing data structure
yr <- unique(id_pop$year)
sexf <- unique(id_pop$sex)
agef <- unique(id_pop$age)
id_pop <- id_pop %>% 
  mutate(age = factor(age, levels = agef)) %>% 
  mutate(sex = factor(sex, levels = sexf))
id_pop

# A tibble: 992 x 4
    year sex   age   population
   <int> <fct> <fct>      <dbl>
 1  2015 male  0-4       11242.
 2  2015 male  5-9       11303.
 3  2015 male  10-14     11242.
 4  2015 male  15-19     11188.
 5  2015 male  20-24     11101.
 6  2015 male  25-29     10900 
 7  2015 male  30-34     10593.
 8  2015 male  35-39      9955.
 9  2015 male  40-44      9304.
10  2015 male  45-49      8200.
# ... with 982 more rows
…
